<?xml version="1.0" encoding="utf-8"?>
<!-- Generator: Adobe Illustrator 15.1.0, SVG Export Plug-In . SVG Version: 6.00 Build 0)  -->
<!DOCTYPE svg PUBLIC "-//W3C//DTD SVG 1.1//EN" "http://www.w3.org/Graphics/SVG/1.1/DTD/svg11.dtd">
<svg version="1.1" id="Layer_1" xmlns="http://www.w3.org/2000/svg" xmlns:xlink="http://www.w3.org/1999/xlink" x="0px" y="0px"
	 width="157.095px" height="248.939px" viewBox="0 0 157.095 248.939" enable-background="new 0 0 157.095 248.939"
	 xml:space="preserve">
<path fill="#FFFFFF" d="M53.005,108.105V73.132c0-15.698,0.701-25.936,2.101-30.703c1.404-4.769,4.008-8.497,7.818-11.186
	c3.808-2.688,8.729-4.032,14.761-4.032c7.115,0,12.844,1.896,17.193,5.699c4.348,3.798,7.094,9.176,8.244,16.131
	c0.645,4.018,0.968,12.653,0.968,25.92v4.711c6.2,1.563,15.907,2.894,26.026-0.044v-3.376c0-23.589-1.701-39.775-5.105-48.559
	c-3.405-8.783-8.89-15.594-16.456-20.433C100.991,2.421,90.469,0,76.988,0C64.013,0,53.563,2.921,45.637,8.764
	c-7.917,5.844-13.011,13.481-15.272,22.909c-2.256,9.428-3.385,24.72-3.385,45.87v31.786C10.911,110.49,0,112.297,0,114.751v125.674
	c0,11.353,157.095,11.353,157.095,0V114.751C157.095,109.068,98.605,106.854,53.005,108.105z M97.169,221.865H59.923l6.9-44.849
	c-6.049-3.873-10.065-10.636-10.065-18.354c0-12.035,9.755-21.792,21.79-21.792c12.037,0,21.793,9.757,21.793,21.792
	c0,7.715-4.02,14.479-10.068,18.353L97.169,221.865z"/>
</svg>
