<?xml version="1.0" encoding="utf-8"?>
<!-- Generator: Adobe Illustrator 15.1.0, SVG Export Plug-In . SVG Version: 6.00 Build 0)  -->
<!DOCTYPE svg PUBLIC "-//W3C//DTD SVG 1.1//EN" "http://www.w3.org/Graphics/SVG/1.1/DTD/svg11.dtd">
<svg version="1.1" id="Layer_1" xmlns="http://www.w3.org/2000/svg" x="0px" y="0px"
     width="42px" height="42px" viewBox="0 0 42 42" enable-background="new 0 0 42 42" xml:space="preserve">
<path fill="#39B44A" d="M25.297,0c0,0-0.914,4.689-1.623,6.87c-1.965,6.047-12.66,7.633-15.563,16.566
	c-2.659,8.186,0.528,13.994,8.213,17.227c-0.105-12.686,11.467-24.485,7.6-17.638c-4.857,8.606-5.661,14.709-5.403,18.455
	c0.007,0.001,0.012,0.005,0.017,0.006c9.272,3.013,14.352-8.132,14.75-9.359C39.372,13.399,25.297,0,25.297,0z"/>
</svg>
