<?xml version="1.0" encoding="utf-8"?>
<!-- Generator: Adobe Illustrator 15.1.0, SVG Export Plug-In . SVG Version: 6.00 Build 0)  -->
<!DOCTYPE svg PUBLIC "-//W3C//DTD SVG 1.1//EN" "http://www.w3.org/Graphics/SVG/1.1/DTD/svg11.dtd">
<svg version="1.1" id="Layer_1" xmlns="http://www.w3.org/2000/svg" xmlns:xlink="http://www.w3.org/1999/xlink" x="0px" y="0px"
	 width="42px" height="42px" viewBox="0 0 42 42" enable-background="new 0 0 42 42" xml:space="preserve">
<path fill="#FFDF4F" d="M40.391,15.213l-4.636-0.673l-4.634-0.673l0,0l-3.157-0.461l-3.481-7.058l-2.075-4.195
	c-0.772-1.573-2.042-1.573-2.816,0l-2.073,4.195l-3.484,7.06l-3.155,0.461l0,0L6.245,14.54L1.61,15.214
	c-1.737,0.255-2.132,1.459-0.874,2.689l3.355,3.267l5.638,5.492l-0.542,3.136l0,0l-0.79,4.625l-0.795,4.611
	c-0.292,1.728,0.734,2.476,2.283,1.664l4.148-2.183L21,34.848l6.964,3.667l4.147,2.182c1.553,0.813,2.578,0.065,2.285-1.663
	l-0.795-4.61l-0.79-4.625l0,0l-0.541-3.137l5.638-5.493l3.356-3.265C42.521,16.673,42.128,15.467,40.391,15.213z"/>
</svg>
