<?xml version="1.0" encoding="utf-8"?>
<!-- Generator: Adobe Illustrator 15.1.0, SVG Export Plug-In . SVG Version: 6.00 Build 0)  -->
<!DOCTYPE svg PUBLIC "-//W3C//DTD SVG 1.1//EN" "http://www.w3.org/Graphics/SVG/1.1/DTD/svg11.dtd">
<svg version="1.1" id="Layer_1" xmlns="http://www.w3.org/2000/svg" xmlns:xlink="http://www.w3.org/1999/xlink" x="0px" y="0px"
	 width="131.2px" height="82px" viewBox="0 0 131.2 82" enable-background="new 0 0 131.2 82" xml:space="preserve">
<g id="Rounded_Rectangle_2_copy_92">
	<g>
		<path fill-rule="evenodd" clip-rule="evenodd" fill="#013474" d="M126.11,0.18H5.313c-2.827,0-5.119,2.292-5.119,5.119v71.658
			c0,2.827,2.292,5.118,5.119,5.118H126.11c2.825,0,5.118-2.291,5.118-5.118V5.299C131.229,2.473,128.936,0.18,126.11,0.18z"/>
	</g>
</g>
<g id="Shape_41_3_">
	<g>
		<path fill-rule="evenodd" clip-rule="evenodd" fill="#FFDC2E" d="M77.898,20.401c-5.339,0-10.249,2.028-13.903,5.372
			c-4.192,3.808-6.844,9.287-6.844,15.371c0,6.085,2.652,11.566,6.844,15.337c3.655,3.345,8.564,5.374,13.903,5.374
			c11.467,0,20.748-9.289,20.748-20.711C98.646,29.688,89.365,20.401,77.898,20.401z"/>
	</g>
</g>
<g id="Shape_41_4_">
	<g>
		<path fill-rule="evenodd" clip-rule="evenodd" fill="#ED1C2E" d="M53.013,20.401c-5.34,0-10.25,2.028-13.904,5.372
			c-4.192,3.808-6.844,9.287-6.844,15.371c0,6.085,2.652,11.566,6.844,15.337c3.656,3.345,8.564,5.374,13.904,5.374
			c11.466,0,20.747-9.289,20.747-20.711C73.76,29.688,64.479,20.401,53.013,20.401z"/>
	</g>
</g>
<g id="Shape_41_5_" opacity="0.6">
	<g>
		<path fill-rule="evenodd" clip-rule="evenodd" fill="#FF8C00" d="M77.898,20.401c-5.339,0-10.249,2.028-13.903,5.372
			c-4.192,3.808-6.844,9.287-6.844,15.371c0,6.085,2.652,11.566,6.844,15.337c3.655,3.345,8.564,5.374,13.903,5.374
			c11.467,0,20.748-9.289,20.748-20.711C98.646,29.688,89.365,20.401,77.898,20.401z"/>
	</g>
</g>
<g id="MasterCard_1_">
	<g>
		<path fill-rule="evenodd" clip-rule="evenodd" fill="#FFFFFF" d="M75.199,41.163c0-2.341,1.453-3.997,3.522-3.997
			c0.792,0,1.496,0.18,2.464,0.577l0.483-2.305c-0.264-0.072-0.352-0.108-0.703-0.215l-1.1-0.216
			c-0.354-0.073-0.794-0.109-1.278-0.109c-3.652,0-6.206,2.664-6.206,6.444c0,2.844,1.85,4.607,4.843,4.607
			c0.748,0,1.407-0.108,2.421-0.324l0.484-2.411c-0.88,0.36-1.674,0.54-2.334,0.54C76.169,43.755,75.199,42.781,75.199,41.163z
			 M72.78,37.022h-0.265c-0.926,0-1.453,0.36-2.289,1.404l0.264-1.331h-2.509l-1.715,8.639h2.773
			c1.012-5.292,1.275-6.191,2.597-6.191c0.089,0,0.089,0,0.175,0c0.266-1.045,0.617-1.801,1.058-2.484L72.78,37.022z M56.318,39.219
			h1.41l0.351-2.124H56.67l0.31-1.296h-2.729l-1.19,5.902l-0.131,0.685l-0.177,0.864c-0.043,0.25-0.088,0.54-0.088,0.756
			c0,1.26,0.792,1.907,2.201,1.907c0.617,0,1.233-0.072,1.981-0.288l0.352-1.907c-0.177,0.072-0.441,0.072-0.749,0.072
			c-0.66,0-0.924-0.181-0.924-0.612c0-0.107,0-0.216,0.043-0.36L56.318,39.219z M50.421,38.966c0.528,0,1.276,0.036,1.981,0.109
			l0.396-1.98c-0.704-0.108-1.804-0.18-2.421-0.18c-3.081-0.001-4.182,1.332-4.137,2.915c0,1.079,0.615,1.836,2.068,2.412
			c1.144,0.432,1.321,0.576,1.321,0.937c0,0.54-0.485,0.792-1.586,0.792c-0.835,0-1.583-0.108-2.463-0.324l-0.397,1.979l0.132,0.036
			l0.485,0.072c0.175,0.036,0.396,0.072,0.748,0.072c0.616,0.073,1.144,0.073,1.496,0.073c2.906,0,4.27-0.901,4.27-2.881
			c0-1.189-0.571-1.873-1.936-2.412c-1.188-0.433-1.321-0.541-1.321-0.936C49.056,39.184,49.541,38.966,50.421,38.966z
			 M102.135,35.114l-0.615,3.025c-0.748-0.792-1.542-1.188-2.642-1.188c-2.421,0-4.488,2.448-4.488,5.328
			c0,2.16,1.319,3.563,3.345,3.563c1.014,0,1.806-0.287,2.554-0.936l-0.133,0.828h2.596l2.113-10.62H102.135z M98.702,43.719
			c-0.968,0-1.451-0.576-1.451-1.729c0-1.692,0.923-2.88,2.157-2.88c0.968,0,1.451,0.576,1.451,1.693
			C100.859,42.495,99.979,43.719,98.702,43.719z M65.957,42.171c0.265-0.901,0.353-1.511,0.353-2.161
			c0-1.907-1.451-3.131-3.741-3.131c-2.772,0-4.797,2.196-4.797,5.146c0,2.558,1.585,3.889,4.666,3.889
			c1.011,0,1.891-0.107,2.86-0.359l0.439-2.16c-0.968,0.396-1.848,0.54-2.86,0.54c-1.584,0-2.42-0.504-2.42-1.513
			c0-0.072,0-0.144,0.043-0.251H65.957z M62.437,38.858c0.835,0,1.32,0.396,1.32,1.117v0.432h-3.081
			C60.939,39.398,61.555,38.858,62.437,38.858z M33.564,35.114l-2.641,6.587l-0.132-6.587h-3.96l-2.157,10.62h2.553l1.673-8.101
			l0.22,8.101h1.892l3.566-8.172l-1.585,8.172h2.729l2.156-10.62H33.564z M45.623,39.435c0-1.657-1.276-2.52-3.652-2.52
			c-1.013,0-1.937,0.108-3.302,0.432l-0.396,1.943l0.264-0.036l0.397-0.108c0.615-0.145,1.496-0.216,2.288-0.216
			c1.276,0,1.761,0.216,1.761,0.792c0,0.143,0,0.252-0.089,0.54c-0.439-0.037-0.835-0.072-1.144-0.072
			c-3.081,0-4.841,1.223-4.841,3.348c0,1.403,1.013,2.341,2.508,2.341c1.277,0,2.201-0.325,2.906-1.046l-0.045,0.9h2.289
			l0.043-0.214l0.044-0.326l0.045-0.432l0.087-0.538l0.616-3.062C45.58,40.191,45.623,39.867,45.623,39.435z M40.563,44.043
			c-0.615,0-0.968-0.324-0.968-0.864c0-0.864,0.792-1.332,2.333-1.332c0.219,0,0.351,0.036,0.616,0.036
			C42.499,43.179,41.706,44.043,40.563,44.043z M85.544,36.916c-1.014,0-1.938,0.108-3.301,0.432l-0.398,1.943l0.267-0.036
			l0.352-0.108c0.616-0.145,1.54-0.216,2.333-0.216c1.276,0,1.76,0.216,1.76,0.792c0,0.143-0.044,0.252-0.134,0.54
			c-0.394-0.037-0.79-0.072-1.098-0.072c-3.081,0-4.843,1.223-4.843,3.348c0,1.403,1.014,2.341,2.51,2.341
			c1.275,0,2.201-0.325,2.902-1.046l-0.044,0.9h2.29v-0.214l0.044-0.326l0.088-0.432l0.09-0.538l0.571-3.062
			c0.221-0.972,0.221-1.296,0.221-1.728C89.153,37.778,87.919,36.916,85.544,36.916z M84.135,44.043
			c-0.616,0-1.012-0.324-1.012-0.864c0-0.864,0.791-1.332,2.377-1.332c0.174,0,0.308,0.036,0.614,0.036
			C86.072,43.179,85.234,44.043,84.135,44.043z M94.565,39.543c0.264-1.045,0.618-1.801,1.058-2.484l-0.09-0.036H95.27
			c-0.924,0-1.452,0.36-2.288,1.404l0.265-1.331h-2.51l-1.673,8.639h2.73c1.012-5.292,1.276-6.191,2.596-6.191
			C94.478,39.543,94.478,39.543,94.565,39.543z"/>
	</g>
</g>
</svg>
