<?xml version="1.0" encoding="utf-8"?>
<!-- Generator: Adobe Illustrator 15.1.0, SVG Export Plug-In . SVG Version: 6.00 Build 0)  -->
<!DOCTYPE svg PUBLIC "-//W3C//DTD SVG 1.1//EN" "http://www.w3.org/Graphics/SVG/1.1/DTD/svg11.dtd">
<svg version="1.1" id="Layer_1" xmlns="http://www.w3.org/2000/svg" xmlns:xlink="http://www.w3.org/1999/xlink" x="0px" y="0px"
	 width="41.398px" height="67.425px" viewBox="0 0 41.398 67.425" enable-background="new 0 0 41.398 67.425" xml:space="preserve">
<g>
	<path fill="#FFFFFF" d="M36.072,67.425c-1.292,0-2.587-0.467-3.611-1.412L1.713,37.625C0.621,36.617,0,35.199,0,33.713
		c0-1.486,0.621-2.904,1.713-3.912L32.46,1.413c2.161-1.994,5.528-1.862,7.524,0.3c1.995,2.161,1.86,5.529-0.3,7.524L13.174,33.713
		l26.511,24.476c2.16,1.995,2.295,5.363,0.3,7.524C38.935,66.85,37.505,67.425,36.072,67.425z"/>
</g>
</svg>
