<?xml version="1.0" encoding="utf-8"?>
<!-- Generator: Adobe Illustrator 15.1.0, SVG Export Plug-In . SVG Version: 6.00 Build 0)  -->
<!DOCTYPE svg PUBLIC "-//W3C//DTD SVG 1.1//EN" "http://www.w3.org/Graphics/SVG/1.1/DTD/svg11.dtd">
<svg version="1.1" id="Layer_1" xmlns="http://www.w3.org/2000/svg" xmlns:xlink="http://www.w3.org/1999/xlink" x="0px" y="0px"
	 width="131.2px" height="82px" viewBox="0 0 131.2 82" enable-background="new 0 0 131.2 82" xml:space="preserve">
<g>
	<path fill="#FFFFFF" d="M5.125,81.487c-2.543,0-4.612-2.069-4.612-4.612V5.125c0-2.543,2.069-4.612,4.612-4.612h120.95
		c2.543,0,4.612,2.069,4.612,4.612v71.75c0,2.543-2.069,4.612-4.612,4.612H5.125z"/>
	<path fill="#808080" d="M126.075,1.025c2.261,0,4.1,1.839,4.1,4.1v71.75c0,2.261-1.839,4.1-4.1,4.1H5.125
		c-2.261,0-4.1-1.839-4.1-4.1V5.125c0-2.261,1.839-4.1,4.1-4.1H126.075 M126.075,0H5.125C2.294,0,0,2.294,0,5.125v71.75
		C0,79.706,2.294,82,5.125,82h120.95c2.831,0,5.125-2.294,5.125-5.125V5.125C131.2,2.294,128.906,0,126.075,0L126.075,0z"/>
</g>
<g id="DISCOVER_1_">
	<g>
		<path d="M24.59,34.843H20.5v13.343h4.069c2.159,0,3.721-0.478,5.089-1.54c1.625-1.26,2.59-3.161,2.59-5.124
			C32.248,37.581,29.101,34.843,24.59,34.843z M27.843,44.864c-0.879,0.742-2.012,1.063-3.811,1.063h-0.749v-8.825h0.749
			c1.798,0,2.887,0.302,3.811,1.081c0.963,0.799,1.537,2.04,1.537,3.319C29.38,42.784,28.806,44.066,27.843,44.864z M34.514,48.186
			h2.779V34.843h-2.779V48.186z M43.646,39.962c-1.67-0.581-2.162-0.962-2.162-1.679c0-0.841,0.876-1.481,2.076-1.481
			c0.833,0,1.519,0.321,2.248,1.079l1.454-1.778c-1.198-0.983-2.632-1.482-4.195-1.482c-2.521,0-4.448,1.642-4.448,3.82
			c0,1.842,0.898,2.783,3.508,3.664c1.092,0.358,1.646,0.599,1.926,0.761c0.555,0.341,0.835,0.819,0.835,1.38
			c0,1.082-0.92,1.881-2.164,1.881c-1.327,0-2.395-0.62-3.037-1.781l-1.795,1.623c1.282,1.759,2.822,2.541,4.942,2.541
			c2.887,0,4.919-1.804,4.919-4.382C47.753,42.004,46.813,41.043,43.646,39.962z M49.234,41.521c0,3.924,3.295,6.965,7.532,6.965
			c1.198,0,2.225-0.221,3.488-0.778v-3.064c-1.114,1.042-2.098,1.462-3.361,1.462c-2.802,0-4.793-1.902-4.793-4.604
			c0-2.56,2.054-4.581,4.666-4.581c1.324,0,2.331,0.44,3.488,1.501V35.36c-1.219-0.579-2.226-0.818-3.425-0.818
			C52.615,34.542,49.234,37.644,49.234,41.521z M82.046,43.659l-3.807-8.962H75.2l6.056,13.684h1.498l6.163-13.684H85.9
			L82.046,43.659z M90.408,48.186h7.893v-2.259h-5.113v-3.604h4.918v-2.26h-4.918v-2.961h5.113v-2.259h-7.893V48.186z
			 M106.11,42.446c2.145-0.409,3.322-1.779,3.322-3.864c0-2.551-1.876-4.02-5.154-4.02h-4.217v13.622h2.844v-5.473h0.37l3.932,5.473
			h3.493L106.11,42.446z M102.905,40.833v-4.128h0.872c1.773,0,2.734,0.697,2.734,2.022c0,1.366-0.961,2.105-2.78,2.105H102.905z"/>
	</g>
</g>
<g id="circle">
	<g>
		<path fill-rule="evenodd" clip-rule="evenodd" fill="#FF8400" d="M68.653,34.519c-4.012,0-7.269,3.086-7.269,6.895
			c0,4.045,3.115,7.073,7.269,7.073c4.049,0,7.248-3.065,7.248-6.994C75.901,37.585,72.723,34.519,68.653,34.519z"/>
	</g>
</g>
<g>
	<defs>
		<path id="SVGID_1_" d="M130.175,5.126c0-2.261-1.838-4.1-4.1-4.1H5.125c-2.261,0-4.1,1.839-4.1,4.1v71.75
			c0,2.262,1.839,4.1,4.1,4.1h120.95c2.262,0,4.1-1.838,4.1-4.1V5.126z"/>
	</defs>
	<clipPath id="SVGID_2_">
		<use xlink:href="#SVGID_1_"  overflow="visible"/>
	</clipPath>
	<path clip-path="url(#SVGID_2_)" fill="#FF8400" d="M65.6,82.002c0,0,44.417-6.92,65.6-22.123v22.124L65.6,82.002z"/>
</g>
</svg>
