<?xml version="1.0" encoding="utf-8"?>
<!-- Generator: Adobe Illustrator 15.1.0, SVG Export Plug-In . SVG Version: 6.00 Build 0)  -->
<!DOCTYPE svg PUBLIC "-//W3C//DTD SVG 1.1//EN" "http://www.w3.org/Graphics/SVG/1.1/DTD/svg11.dtd">
<svg version="1.1" id="Layer_1" xmlns="http://www.w3.org/2000/svg" x="0px" y="0px"
     width="42px" height="42px" viewBox="0 0 42 42" enable-background="new 0 0 42 42" xml:space="preserve">
<path fill="#EF4135" d="M32.91,11.888c-5.977-1.988-10.631,3.59-10.631,3.59c-0.351,0.419-0.815,0.631-1.279,0.633
	c-0.464-0.002-0.929-0.214-1.278-0.633c0,0-4.655-5.579-10.631-3.59c-5.958,1.986-9.019,9.803-6.661,18.026
	c2.359,8.224,9.165,13.487,15.201,11.757c1.264-0.362,1.747-0.707,1.747-0.707c0.446-0.32,1.035-0.479,1.623-0.478
	c0.589-0.002,1.176,0.157,1.623,0.478c0,0,0.482,0.345,1.746,0.707c6.037,1.73,12.844-3.533,15.201-11.757
	C41.928,21.691,38.867,13.874,32.91,11.888z"/>
<path fill="#39B44A" d="M22.617,11.135c-1.295-7.078-7.321-9.139-7.396-9.162c-0.41-0.125-0.831-0.088-1.193,0.074
	c-0.428,0.191-0.776,0.556-0.927,1.041c-0.278,0.893,0.221,1.843,1.113,2.12c0.051,0.016,4.1,1.349,5.124,6.669
	c0.254,0.724,0.979,1.206,1.775,1.121c0.091-0.009,0.179-0.026,0.264-0.049C22.166,12.737,22.707,11.974,22.617,11.135z"/>
<path fill="#39B44A" d="M33.775,0.5c1.201,1.203-0.199,5.746-1.961,7.508c-1.764,1.764-6.266,3.124-7.469,1.92
	c-1.201-1.2-0.117-5.426,1.941-7.487C28.346,0.382,32.572-0.7,33.775,0.5z"/>
</svg>
