<?xml version="1.0" encoding="utf-8"?>
<!-- Generator: Adobe Illustrator 15.1.0, SVG Export Plug-In . SVG Version: 6.00 Build 0)  -->
<!DOCTYPE svg PUBLIC "-//W3C//DTD SVG 1.1//EN" "http://www.w3.org/Graphics/SVG/1.1/DTD/svg11.dtd">
<svg version="1.1" id="Layer_1" xmlns="http://www.w3.org/2000/svg" xmlns:xlink="http://www.w3.org/1999/xlink" x="0px" y="0px"
	 width="400px" height="400px" viewBox="0 0 400 400" enable-background="new 0 0 400 400" xml:space="preserve">
<path fill="#FFFFFF" d="M285.064,154.89c0,0,5.596-4.895,5.596-9.844s-4.281-12.744-10.289-12.744c-2.965,0-3.971,2.848-3.578,4.025
	c0.367,1.088,2.461,3.434,3.578,5.139c1.117,1.707-0.613,2.826-2.682,3.58c-0.66,0.242-3.063-0.021-4.285-0.518
	c-2.617-1.059-18.945-17.15-61.238-17.15c-14.176,0-23.93,1.68-23.93,1.68s-16.33-15.994-32.88-15.994
	c-14.37,0-15.989,0.613-18.341,4.029c-2.348,3.412,10.566,26.947,12.301,27.953c-7.77,7.211-13.473,15.098-13.473,15.098
	s-9.225,11.74-11.576,17.943c-1.232,2.281-7.377,5.031-10.563,8.219c-3.191,3.186-4.367,5.539-4.367,16.273
	c0,10.73,0.724,13.26,1.346,17.607c1.676,7.713,9.947,9.889,12.245,10.734c1.591,0.586,5.457,1.621,7.013,5.32
	c6.658,15.813,30.055,26.549,30.055,29.4c0,2.85-0.5,13.25,0.17,14.926c1.762,3.775,3.604,5.201,19.288,5.201
	c15.686,0,14.677-1.93,16.104-4.867c1.427-2.934,1.591-8.471,3.353-11.572c1.761-3.104,5.036-5.369,12.075-5.369
	c7.049,0,8.58,2.873,10.232,4.531c1.654,1.654,3.131,8.904,4.025,12.746c0.9,3.844,2.102,5.703,15.432,5.703
	c13.336,0,21.307-2.182,20.688-7.488c-0.613-5.316-0.445-7.021-0.445-10.961c-0.006-3.941,1.398-6.627,3.354-8.947
	c10.033-14.539,26.391-22.816,26.391-62.842c0-18.785-7.379-29.271-7.379-36.006C283.281,157.284,285.064,154.89,285.064,154.89z
	 M153.613,193.919c-4.408,0-7.98-3.572-7.98-7.984c0-4.406,3.572-7.984,7.98-7.984c4.412,0,7.986,3.578,7.986,7.984
	C161.597,190.347,158.025,193.919,153.613,193.919z M256.082,159.401c-0.879,1.328-2.328,2.045-3.809,2.045
	c-0.865,0-1.74-0.246-2.512-0.758c-16.469-10.896-39.658-8.635-39.889-8.605c-2.512,0.252-4.748-1.563-5.008-4.068
	c-0.264-2.508,1.561-4.75,4.064-5.012c1.084-0.109,26.705-2.604,45.869,10.076C256.895,154.468,257.469,157.298,256.082,159.401z"/>
</svg>
