<?xml version="1.0" encoding="utf-8"?>
<!-- Generator: Adobe Illustrator 15.1.0, SVG Export Plug-In . SVG Version: 6.00 Build 0)  -->
<!DOCTYPE svg PUBLIC "-//W3C//DTD SVG 1.1//EN" "http://www.w3.org/Graphics/SVG/1.1/DTD/svg11.dtd">
<svg version="1.1" id="Layer_1" xmlns="http://www.w3.org/2000/svg" xmlns:xlink="http://www.w3.org/1999/xlink" x="0px" y="0px"
	 width="400px" height="400px" viewBox="0 0 400 400" enable-background="new 0 0 400 400" xml:space="preserve">
<g>
	<g>
		<path fill="#FFFFFF" d="M262.712,239.288l-7.64,7.132v27.623c0,9.695-7.933,17.629-17.629,17.629h-95.7
			c-9.696,0-17.629-7.934-17.629-17.629V111.352c0-9.695,7.933-17.629,17.629-17.629h95.7c9.696,0,17.629,7.934,17.629,17.629v4.029
			h15.614V88.686c0-9.695-7.933-17.629-17.629-17.629H126.129c-9.695,0-17.629,7.934-17.629,17.629v222.629
			c0,9.696,7.934,17.629,17.629,17.629h126.929c9.696,0,17.629-7.933,17.629-17.629v-72.026H262.712z M176.75,80.627h25.688
			c1.391,0,2.519,1.128,2.519,2.519s-1.128,2.519-2.519,2.519H176.75c-1.392,0-2.519-1.128-2.519-2.519
			S175.358,80.627,176.75,80.627z M202.438,315.093H176.75c-3.478,0-6.297-2.819-6.297-6.296c0-3.478,2.819-6.297,6.297-6.297
			h25.688c3.479,0,6.296,2.819,6.296,6.297C208.733,312.273,205.916,315.093,202.438,315.093z"/>
	</g>
	<path fill="#FFFFFF" d="M295.871,122.937H177.505c-9.696,0-17.628,7.933-17.628,17.629v73.538c0,9.696,7.932,17.629,17.628,17.629
		h41.058l-3.608,25.375c-0.918,6.457,0.684,9.931,3.865,9.931c1.953,0,4.502-1.31,7.431-4.044l33.482-31.262h36.139
		c9.695,0,17.629-7.933,17.629-17.629v-73.538C313.5,130.869,305.566,122.937,295.871,122.937z M253.187,206.554
		c-2.692,2.522-6.032,4.202-9.966,5.013v3.953c0,2.344-1.899,4.244-4.243,4.244h-2.245c-2.344,0-4.243-1.9-4.243-4.244v-3.789
		c-4.323-0.721-8.114-2.376-11.313-4.943c-4.524-3.634-6.733-9.12-6.564-16.307c0.011-0.422,0.083-0.842,0.218-1.243l0.081-0.245
		c0.578-1.732,2.199-2.9,4.024-2.9h1.878c2.343,0,4.243,1.9,4.243,4.244c0,4.018,1.055,6.743,3.224,8.332
		c2.583,1.893,5.628,2.813,9.31,2.813c3.355,0,5.91-0.856,7.807-2.62c1.832-1.703,2.686-3.569,2.686-5.872
		c0-3.129-1.092-4.535-1.914-5.321c-1.171-1.12-3.922-2.944-10.374-5.282c-6.431-2.127-11.053-4.48-14.132-7.193
		c-3.567-3.141-5.377-7.674-5.377-13.47c0-5.54,1.878-10.138,5.582-13.665c2.726-2.596,6.136-4.289,10.174-5.059v-3.85
		c0-2.343,1.899-4.242,4.242-4.242h2.245c2.344,0,4.243,1.899,4.243,4.242v3.916c4.216,0.891,7.698,2.826,10.387,5.781
		c3.472,3.818,5.182,8.969,5.083,15.309c-0.008,0.519-0.11,1.03-0.303,1.512l-0.082,0.203c-0.646,1.611-2.205,2.667-3.938,2.667
		h-1.92c-2.343,0-4.242-1.899-4.242-4.243c0-3.463-0.912-6.159-2.788-8.243c-1.759-1.952-4.266-2.902-7.663-2.902
		c-3.598,0-6.161,0.815-7.838,2.492c-1.7,1.7-2.492,3.606-2.492,6.001c0,2.453,0.598,4.272,1.826,5.56
		c0.846,0.886,3.318,2.715,10.389,5.019c0.027,0.009,0.053,0.018,0.079,0.027c6.279,2.182,10.853,4.549,13.983,7.236
		c3.664,3.146,5.521,7.662,5.521,13.424C258.772,198.486,256.893,203.078,253.187,206.554z"/>
</g>
</svg>
