<?xml version="1.0" encoding="utf-8"?>
<!-- Generator: Adobe Illustrator 15.1.0, SVG Export Plug-In . SVG Version: 6.00 Build 0)  -->
<!DOCTYPE svg PUBLIC "-//W3C//DTD SVG 1.1//EN" "http://www.w3.org/Graphics/SVG/1.1/DTD/svg11.dtd">
<svg version="1.1" id="Layer_1" xmlns="http://www.w3.org/2000/svg" xmlns:xlink="http://www.w3.org/1999/xlink" x="0px" y="0px"
	 width="400px" height="400px" viewBox="0 0 400 400" enable-background="new 0 0 400 400" xml:space="preserve">
<circle fill="#EF4135" cx="200" cy="200" r="200"/>
<g>
	<defs>
		<circle id="SVGID_1_" cx="200" cy="200" r="184.485"/>
	</defs>
	<clipPath id="SVGID_2_">
		<use xlink:href="#SVGID_1_"  overflow="visible"/>
	</clipPath>
	<g clip-path="url(#SVGID_2_)">
		<g>
			<path fill="none" d="M93.978,111.583c-5.351,0-10.07,3.974-10.977,9.241L69.706,198.05c-0.501,2.913,0.17,5.86,1.893,8.298
				c1.722,2.438,4.274,4.057,7.188,4.559l125.401,21.589c0.622,0.107,1.254,0.161,1.88,0.161c5.351,0,10.07-3.973,10.978-9.242
				l6.616-38.431c-32.986-15.457-77.315-63.62-78.325-64.721l-49.479-8.519C95.235,111.637,94.603,111.583,93.978,111.583z"/>
			<path fill="#FFFFFF" d="M290.557,108.764l-60.447-24.675c-5.152-2.103-13.391-1.692-18.309,0.913l-54.83,29.05l65.662,11.304
				c10.446,1.799,17.482,11.762,15.684,22.208l-6.967,40.468c3.43,1.08,6.664,1.678,9.629,1.678c32.04,0,45.531-9.781,45.531-9.781
				h26.645v-71.164H290.557z"/>
			<path fill="#FFFFFF" d="M222.633,125.355L97.231,103.768c-1.074-0.186-2.169-0.279-3.253-0.279
				c-9.391,0-17.361,6.713-18.954,15.963l-13.294,77.226c-0.869,5.044,0.289,10.138,3.257,14.341
				c2.97,4.205,7.383,6.998,12.426,7.866l125.402,21.589c1.074,0.185,2.168,0.279,3.253,0.279c9.391,0,17.362-6.715,18.954-15.964
				l13.295-77.225C240.115,137.117,233.079,127.154,222.633,125.355z M217.045,223.414c-0.907,5.27-5.627,9.242-10.978,9.242
				c-0.626,0-1.258-0.054-1.88-0.161L78.786,210.906c-2.913-0.502-5.466-2.12-7.188-4.559c-1.722-2.438-2.394-5.385-1.893-8.298
				l13.295-77.226c0.907-5.268,5.625-9.241,10.977-9.241c0.625,0,1.258,0.054,1.88,0.161l125.401,21.59
				c6.048,1.041,10.122,6.809,9.081,12.856L217.045,223.414z"/>
		</g>
		
			<rect x="66.508" y="182.568" transform="matrix(0.9854 0.1702 -0.1702 0.9854 35.2245 -21.8998)" fill="#FFFFFF" width="157.599" height="23.743"/>
		
			<line fill="none" stroke="#FFFFFF" stroke-width="28.3305" stroke-linecap="round" stroke-miterlimit="10" x1="175.211" y1="162.39" x2="249.747" y2="153.621"/>
		<rect x="321.08" y="99.32" fill="#FFFFFF" width="97.006" height="90.389"/>
		<polygon fill="#FFFFFF" points="61.214,241.846 338.786,286.365 338.786,313.01 61.214,313.01 		"/>
		<polygon fill="#FFFFFF" points="-32.57,226.342 400,295.721 400,429.184 -33.077,429.184 		"/>
	</g>
</g>
</svg>
