<?xml version="1.0" encoding="utf-8"?>
<!-- Generator: Adobe Illustrator 23.0.3, SVG Export Plug-In . SVG Version: 6.00 Build 0)  -->
<svg version="1.1" id="Layer_1" xmlns="http://www.w3.org/2000/svg" x="0px" y="0px"
     viewBox="0 0 400 400" style="enable-background:new 0 0 400 400;" xml:space="preserve">
<style type="text/css">
	.st0{fill:#FFFFFF;}
</style>
<path class="st0" d="M200,97.5c-56.61,0-102.5,45.89-102.5,102.5c0,56.61,45.89,102.5,102.5,102.5c56.6,0,102.5-45.89,102.5-102.5
	C302.5,143.39,256.61,97.5,200,97.5z M215.8,265.23h-31.93l-40.41-121.06h32.35l24.03,88.14l24.11-88.14h32.6L215.8,265.23z"/>
</svg>
