<?xml version="1.0" encoding="utf-8"?>
<!-- Generator: Adobe Illustrator 15.1.0, SVG Export Plug-In . SVG Version: 6.00 Build 0)  -->
<!DOCTYPE svg PUBLIC "-//W3C//DTD SVG 1.1//EN" "http://www.w3.org/Graphics/SVG/1.1/DTD/svg11.dtd">
<svg version="1.1" id="Layer_1" xmlns="http://www.w3.org/2000/svg" xmlns:xlink="http://www.w3.org/1999/xlink" x="0px" y="0px"
	 width="400px" height="400px" viewBox="0 0 400 400" enable-background="new 0 0 400 400" xml:space="preserve">
<g>
	<path fill="#FFFFFF" d="M270.175,104.268c-6.513-3.984-11.861-5.844-16.825-5.844c-5.049,0-8.9,1.881-12.637,3.681l-1.205,0.589
		c-7.011,3.357-24.028,18.944-30.374,24.869c4.142,1.837,7.029,5.971,7.029,10.797c0,5.033-3.171,9.34-7.625,11.036l0.619,0.181
		c5.935,1.876,13.556,2.814,22.639,2.814c13.542,0,30.249-2.24,42.541-5.658c7.237-2.037,11.719-6.82,12.648-13.483
		C288.347,123.383,281.12,110.918,270.175,104.268z M276.316,131.781c-0.241,1.549-0.979,3.465-4.884,4.569
		c-8.681,2.432-24.283,5.259-39.637,5.259c-5.938,0-11.233-0.448-15.524-1.321l0.136-4.782c8.961-8.37,23.153-20.901,27.745-23.095
		l1.271-0.595c3.126-1.527,5.38-2.607,7.927-2.607c2.851,0,6.522,1.384,11.218,4.24C271.588,117.729,277.08,126.291,276.316,131.781
		z"/>
	<path fill="#FFFFFF" d="M183.825,138.359c0-4.826,2.884-8.96,7.025-10.795c-6.344-5.924-23.359-21.514-30.361-24.868l-1.211-0.592
		c-3.742-1.8-7.595-3.681-12.641-3.681c-4.965,0-10.308,1.859-16.827,5.844c-10.94,6.65-18.157,19.115-16.806,28.981
		c0.927,6.663,5.421,11.446,12.65,13.483c12.294,3.418,29,5.658,42.537,5.658c9.085,0,16.703-0.938,22.635-2.814l0.629-0.181
		C187,147.699,183.825,143.39,183.825,138.359z M168.192,141.609c-15.352,0-30.958-2.827-39.64-5.259
		c-3.904-1.104-4.644-3.021-4.868-4.569c-0.776-5.49,4.725-14.053,11.741-18.332c4.688-2.856,8.364-4.24,11.212-4.24
		c2.547,0,4.801,1.08,7.933,2.607l1.269,0.595c4.591,2.197,18.779,14.725,27.742,23.095l0.135,4.782
		C179.424,141.161,174.136,141.609,168.192,141.609z"/>
	<path fill="#FFFFFF" d="M204.366,155.555h-8.736c-9.476,0-17.198-7.715-17.198-17.195c0-9.479,7.723-17.2,17.198-17.2h8.736
		c9.473,0,17.197,7.722,17.197,17.2C221.563,147.84,213.839,155.555,204.366,155.555z M195.63,131.931
		c-3.544,0-6.428,2.892-6.428,6.429c0,3.533,2.884,6.41,6.428,6.41h8.736c3.532,0,6.422-2.877,6.422-6.41
		c0-3.537-2.89-6.429-6.422-6.429H195.63z"/>
	<path fill="#FFFFFF" d="M162.073,244.049l-8.387-13.567l-18.082,3.393l24.051-41.635h-42.338v102.884
		c0,3.551,2.907,6.454,6.466,6.454h68.132V192.355L162.073,244.049z"/>
	<path fill="#FFFFFF" d="M240.479,192.239l24.032,41.635l-18.076-3.393l-8.39,13.567l-29.911-51.81h-0.049v109.338h68.118
		c3.555,0,6.471-2.903,6.471-6.454V192.239H240.479z"/>
	<g>
		<path fill="#FFFFFF" d="M186.079,145.286c-16.883,3.893-43.779,0.494-58.96-3.753c-2.187-0.598-3.902-1.518-5.226-2.609h-11.568
			c-3.568,0-6.473,2.907-6.473,6.459v31.235c0,3.567,2.904,6.463,6.473,6.463h78.896v-34.813
			C187.994,147.471,186.949,146.463,186.079,145.286z"/>
		<path fill="#FFFFFF" d="M289.662,138.924H278.1c-1.332,1.092-3.042,2.012-5.217,2.609c-15.191,4.247-42.09,7.646-58.975,3.753
			c-0.864,1.177-1.911,2.185-3.146,2.982v34.813h78.899c3.566,0,6.484-2.896,6.484-6.463v-31.235
			C296.146,141.831,293.229,138.924,289.662,138.924z"/>
	</g>
</g>
</svg>
