<?xml version="1.0" encoding="utf-8"?>
<!-- Generator: Adobe Illustrator 15.1.0, SVG Export Plug-In . SVG Version: 6.00 Build 0)  -->
<!DOCTYPE svg PUBLIC "-//W3C//DTD SVG 1.1//EN" "http://www.w3.org/Graphics/SVG/1.1/DTD/svg11.dtd">
<svg version="1.1" id="Layer_1" xmlns="http://www.w3.org/2000/svg" xmlns:xlink="http://www.w3.org/1999/xlink" x="0px" y="0px"
	 width="400px" height="400px" viewBox="0 0 400 400" enable-background="new 0 0 400 400" xml:space="preserve">
<g>
	
		<polyline fill="none" stroke="#FFFFFF" stroke-width="11" stroke-linecap="round" stroke-linejoin="round" stroke-miterlimit="10" points="
		90.828,127.098 113.396,127.098 150.586,249.473 266.286,249.473 289.173,157.612 122.983,157.612 	"/>
	<path fill="none" stroke="#FFFFFF" stroke-width="11" stroke-linecap="round" stroke-linejoin="round" stroke-miterlimit="10" d="
		M242.666,287.932h-96.531c-21.774,0-26.317-38.459,4.451-38.459"/>
	<g>
		<path fill="#FFFFFF" d="M166.003,264.766c-12.863,0-23.328,10.463-23.328,23.324c0,12.865,10.465,23.33,23.328,23.33
			c12.862,0,23.327-10.465,23.327-23.33C189.33,275.229,178.865,264.766,166.003,264.766z"/>
		<path fill="#FFFFFF" d="M242.663,264.766c-12.861,0-23.325,10.463-23.325,23.324c0,12.865,10.464,23.33,23.325,23.33
			c12.864,0,23.33-10.465,23.33-23.33C265.993,275.229,255.527,264.766,242.663,264.766z"/>
	</g>
	<path fill="#FFFFFF" d="M240.759,142.673h33.119l4.749-15.442c1.08-3.51-1.002-6.87-4.624-7.469l-43.358-7.166L240.759,142.673z"/>
	<path fill="#FFFFFF" d="M142.306,142.673h88.795l-16.264-41.045c-1.354-3.413-5.32-5.294-8.82-4.179l-64.3,20.504
		c-3.497,1.115-5.478,4.901-4.404,8.41L142.306,142.673z"/>
	
		<line fill="none" stroke="#FFFFFF" stroke-width="11" stroke-linejoin="round" stroke-miterlimit="10" x1="132.059" y1="188.508" x2="281.163" y2="188.508"/>
	
		<line fill="none" stroke="#FFFFFF" stroke-width="11" stroke-linejoin="round" stroke-miterlimit="10" x1="141.628" y1="218.99" x2="273.88" y2="218.99"/>
	
		<line fill="none" stroke="#FFFFFF" stroke-width="11" stroke-linejoin="round" stroke-miterlimit="10" x1="183.098" y1="249.473" x2="183.098" y2="158.023"/>
	
		<line fill="none" stroke="#FFFFFF" stroke-width="11" stroke-linejoin="round" stroke-miterlimit="10" x1="230.267" y1="249.473" x2="230.267" y2="158.023"/>
</g>
</svg>
