<?xml version="1.0" encoding="utf-8"?>
<!-- Generator: Adobe Illustrator 15.1.0, SVG Export Plug-In . SVG Version: 6.00 Build 0)  -->
<!DOCTYPE svg PUBLIC "-//W3C//DTD SVG 1.1//EN" "http://www.w3.org/Graphics/SVG/1.1/DTD/svg11.dtd">
<svg version="1.1" id="Layer_1" xmlns="http://www.w3.org/2000/svg" xmlns:xlink="http://www.w3.org/1999/xlink" x="0px" y="0px"
	 width="20px" height="20px" viewBox="0 0 20 20" enable-background="new 0 0 20 20" xml:space="preserve">
<path fill="#222222" d="M10,0.001c-5.514,0-10,4.486-10,10c0,5.513,4.486,9.998,10,9.998c5.514,0,10-4.485,10-9.998
	C20,4.487,15.514,0.001,10,0.001z M2.176,10.001c0-4.314,3.51-7.824,7.824-7.824c1.766,0,3.391,0.595,4.701,1.584l-10.94,10.94
	C2.771,13.391,2.176,11.767,2.176,10.001z M10,17.823c-1.765,0-3.39-0.594-4.7-1.583L16.24,5.3c0.989,1.311,1.584,2.936,1.584,4.701
	C17.824,14.314,14.314,17.823,10,17.823z"/>
</svg>
