{
	"models": 20,
	"page": 1,
	"sort": "date",
	"order": "desc"
}

/*
======================================================================
NOTES - GET REQUEST - /api/myqc/deductions
$Author: jrmitaly $: Author of last commit
$Date: 2015-07-23 18:56:01 -0400 (Thu, 23 Jul 2015) $: Date of last commit
$Rev: 10729 $: Revision of last commit    
======================================================================
*/

/*6/10/2015 -jrmitaly
I'll default the values to the above if I don't receive this object when I receive the request.

models will be models per page

page will be the page number you want 

sort will be the object you want it sorted by. unlike jQgrid this shouldn't be a column name..
	let's just make it more generic objects.. like..
	"date"
	"name"
	"newest" 
	etc. etc. etc.
	
order will be the sort order for the above object
*/