[
	{
		"TOSID": "1",
		"status": "accepted"
	},
	{
		"TOSID": "2",
		"status": "accepted"
	}	
]

/*
==================================================================================
NOTES - POST REQUEST - /api/account/tos/accept/
$Author: jrmitaly $: Author of last commit
$Date: 2015-07-23 18:56:01 -0400 (Thu, 23 Jul 2015) $: Date of last commit
$Rev: 10729 $: Revision of last commit 
==================================================================================
*/

/* 7/23/2015 -jrmitaly

This end point takes a TOSID as part of the reqeust and object with an "status" to determine if the user accepted 
a single TOS agreement

*/