{
	"amount": 50.00 
}

/*
======================================================================
NOTES - POST REQUEST - /api/funding/fund
NOTES - POST REQUEST - /api/funding/fund/transaction 
NOTES - POST REQUEST - /api/funding/refund
$Author: jrmitaly $: Author of last commit
$Date: 2017-02-14 16:48:07 -0500 (Tue, 14 Feb 2017) $: Date of last commit
$Rev: 20549 $: Revision of last commit  
======================================================================
*/

/* 2/10/2017 - jrmitaly

Sends "amount" for various reasons. 
	"Funding" (/fund), "Funding to fulfil a transaction" (/fund/transaction), "Refunding" (/refund)

*/
