{
	"instanceID":"1",
	"instanceUserID":"127"
}

/*
======================================================================
NOTES - POST REQUEST - https://www.mmhcloud.com/gateway/api/auth/enter
$Author: jrmitaly $: Author of last commit
$Date: 2015-07-23 18:56:01 -0400 (Thu, 23 Jul 2015) $: Date of last commit
$Rev: 10729 $: Revision of last commit 
======================================================================
*/

/* 7/14/2015 -jrmitaly 

"instanceID": Should match the instanceID the user is trying to go to

"instanceUserID": Should match either the ID in QC_QuickChargeUsers (positive ID) or QC_Employees (negative ID)
					In our case the positive IDs should not be able to access the application
					
- Maybe we should make /enter/employees?
					
*/