{
	"value": false
}


/*
======================================================================
NOTES - GET RESPONSE - /api/myqc/spendingprofiles/check
$Author: jrmitaly $: Author of last commit
$Date: 2015-07-23 18:56:01 -0400 (Thu, 23 Jul 2015) $: Date of last commit
$Rev: 10729 $: Revision of last commit 
======================================================================
*/

/*6/17/2015 -jrmitaly

This endpoint will respond with true/false to see if the logged in employee has access to more than one spending profile.

If true, a button will show on the account details page.

*/