[
	{
		"id": "apiversion",
		"version": "1.0.3",
		"available": "yes"
	},
	{
		"id": "selfservicecore",
		"version": "N/A",
		"available": "yes"
	},
	{
		"id": "accountfreeze",
		"version": "N/A",
		"available": "yes"
	},			
	{
		"id": "onlineordering",
		"version": "N/A",
		"available": "no"
	},	
	{
		"id": "rewards",
		"version": "N/A",
		"available": "no"
	}
]


/*
======================================================================
NOTES - GET RESPONSE - /api/myqc/check/features
$Author: jrmitaly $: Author of last commit
$Date: 2016-02-26 08:32:05 -0500 (Fri, 26 Feb 2016) $: Date of last commit
$Rev: 14625 $: Revision of last commit    
======================================================================
*/


/* 2/24/2016 -jrmitaly

	The goal of this end point is to let the client know what the API is capable of handling.
	
	A "feature" is generally a set of API end points...
		...that the client would need in order to respond to requests related to that feature
		...The client can then utilize the API properly based on the features available.
		
	"id": Identifier for a feature - hard coded at this point 

	"version": (Optional) - The version of the feature
	
	"available": Does the API currently support this feature?
		- Yes / No / Partial
		- The concept of partial is just an idea but could mean "yes, but only until this version"

*/
