{
	"pgkey": "226324427254198123514307561594070844728020154767467251461842770554187637423901458918435"
}


/*
======================================================================
NOTES - GET RESPONSE - /myqc/api/secure/auth
$Author: jmdottavio $: Author of last commit
$Date: 2016-04-21 13:53:07 -0400 (Thu, 21 Apr 2016) $: Date of last commit
$Rev: 15843 $: Revision of last commit    
======================================================================
*/


/* 3/25/2016 -jrmitaly 

	Returns a "Payment Gateway Key" (PGKey) which represents a QC Instance Web Server (InstanceID) and Account Holder (InstanceUserID)

	PGKeys are similar to GSKeys and estabilish trust between a QC Instance and Payment Gateway 
	
	PGKeys are used to lookup InstanceID and InstanceUserID 
	
*/
