[
	{
		"id": 11,
		"homeKeypadID": 1,
		"header1": "Cafe Grill",
		"header2": "Burgers + Fries",
		"header3": "Open 11-3 M-F",
		"header4": "Pickup Only!",
		"header5": "",
		"venueCategory": "default.png",
		"pickUpOrderingOpenTime": "11:00 AM",
		"pickUpOrderingCloseTime": "2:40 PM",
		"pickUpCloseTime": "3:00 PM",
		"pickupPrepTime": 20, 
		"deliveryOrderingOpenTime": "",
		"deliveryOrderingCloseTime": "",
		"deliveryCloseTime": "",
		"deliveryPrepTime": 45,
	  	"deliveryMinimum": ""
	},
	{
		"id": 22,
		"homeKeypadID": 2,
		"header1": "Pizza Counter",
		"header2": "Hot Fresh Pizza",
		"header3": "Open 10-5 M-F",
		"header4": "$10 Delivery Minimum",
		"header5": "Delivery Hours 11-2",
		"venueCategory": "pizza.png",
		"pickUpOrderingOpenTime": "10:00 AM",
		"pickUpOrderingCloseTime": "4:40 PM",
		"pickUpCloseTime": "5:00 PM",
		"pickupPrepTime": 20,
		"deliveryOrderingOpenTime": "11:00 AM",
		"deliveryOrderingCloseTime": "1:15 PM",
		"deliveryCloseTime": "2:00 PM",
		"deliveryPrepTime": 45,
	  	"deliveryMinimum": ""
	}
]

/*
======================================================================
NOTES - GET RESPONSE - /api/ordering/stores
$Author: jmdottavio $: Author of last commit
$Date: 2016-04-28 14:49:52 -0400 (Thu, 28 Apr 2016) $: Date of last commit
$Rev: 15897 $: Revision of last commit
======================================================================
*/

/* 2/11/2016 -jrmitaly 

"id": ID of this "Store" as a virtual terminal in the QC_MyQCTerminal table (MyQCTerminalID)

"homeKeypadID": The Home Keypad ID for this "Store" (virtual terminal of type Online Ordering)
 
"header1-5": Information off the virtual terminal record in the QC_Terminal table for displaying the store name, hours, etc.

"venueCategory": Icon file name for the category of the Revenue Center which the "Store" (virtual terminal) is part of

"pickUp and delivery close times": Time(s) up until user can pick up their order / have it delivered, for non ASAP orders

"pickUp and delivery ordering open/close times": Time range this "Store" (virtual terminal) can accept online orders

	- For Stores that do not offer delivery (or pick up) - they will simply have empty string for response "" 

*/

