[
	{
		"id": 2,
		"name": "Hospital 1 - Cafeteria",
		"balance": 75.00
	},
	{
		"id": 15,
		"name": "Default",
		"balance": 0.00
	},
	{
		"id": 5,
		"name": "Jazzman",
		"balance": 0.00
	},
	{
		"id": 1,
		"name": "POS Anywhere",
		"balance": 0.00
	}
]

---
OR (example of just one store in a terminal group)
---

[
    {
        "id": 3,
        "name": "Gift Shop A",
		"balance": 0.00
    }	
]

/*
======================================================================
NOTES - GET RESPONSE - /api/myqc/balances/{terminalGroupID} (ex. /api/myqc/balances/1)
$Author: jrmitaly $: Author of last commit
$Date: 2015-07-23 18:56:01 -0400 (Thu, 23 Jul 2015) $: Date of last commit
$Rev: 10729 $: Revision of last commit    
======================================================================
*/

/*6/22/2015 -jrmitaly

The endpoint returns a SINGLE storeBalanceCollection (see above JSON) for the logged in employee. 

terminalGroupID is aka purchaseLimitID AND aka debitProfileID

*/

