{
	"id":352,
	"name":"Classic Burger",
	"quantity": null,
	"description":"Classic Burger Product Description",
	"price":9.99,
	"discount": null,
	"modSetDetailID":4,
	"modifiers":
	[
		{
			"id": 1,
			"name": "None",
			"price": 0.00
		},
		{
			"id": 2,
			"name": "Lettuce",
			"price": 0.50
		},
		{
			"id": 3,
			"name": "Tomato",
			"price": 0.50
		},
		{
			"id": 4,
			"name": "Cheese",
			"price": 0.75
		},
		{
			"id": 5,
			"name": "Onions",
			"price": 0.25
		},
		{
			"id": 6,
			"name": "Pickles",
			"price": 0.50
		}
	]  
}

/*
======================================================================
NOTES - POST RESPONSE - /api/ordering/product/{PAPluID}
$Author: jrmitaly $: Author of last commit
$Date: 2016-02-18 15:28:23 -0500 (Thu, 18 Feb 2016) $: Date of last commit
$Rev: 14288 $: Revision of last commit
======================================================================
*/

/* 2/18/2016 -jrmitaly 

NOTE: an array list of modifier models is required in the POST request.
	  All information in the response will be updated to the "latest possible" information 

"id": ID of the product (PAPluID)

"name": Name of the product

"description": Description of the product 

"quantity": (used when part of OrderModel) How many of this product are on the order

"price": Price of the product 

"discount": "Item" (Product Level) discount that was applied to the product

"modSetDetailID": ID of the FIRST "placeholder" in the "Modifier Menu" - PAModifierSetDetailID off of the QC_PAModifierSetDetail table 
					If null, it can be expected that this product CANNOT be modified 

"modifiers": Array list of "modifier products"
				
	"id": ID of the "modifier product" (PAPluID on QC_PAPlu) - has to be a product that has "Is Modifier" turned on

	"name": Name of the "modifier product"
	
	"price": Price of the "modifier product"

*/