{
	"type": "delivery",
	"location": "My house",
	"time": "11:00 AM",
	"phone": "518-555-5555",
	"comments": "Knock loudly I can't hear anything",
	"subtotal": 7.65,
	"subtotalDiscount": -0.77, 
	"deliveryFee": 2.00,
	"tax": .63, 
	"total": 9.51,
	"products":
	[
		{
			"id": 2,
			"name":"Product A",
		  	"quantity": 1,
		  	"price": 3.99,
			"discount": -.77,
			"modifiers":
			[
				{
					"id": 1,
					"name":"Modifier A",
					"price": .50
				},
				{
					"id": 2,
					"name":"Modifier B"
				},
				{
					"id": 53,
					"name":"Modifier C"
				}			
			]
		},
		{
			"id": 3,
			"name":"Product B",
            "quantity": 2,
		  	"price": 2.99,
			"discount": null,
			"modifiers":	
			[
				{
					"id": 1,
					"name":"Modifier A"
				}		
			]			
		},
		{
			"id": 4,
			"name":"Product C",
            "quantity": 1,
		  	"price": 1.99,
			"discount": null,
			"modifiers": ""	
		},
		{
			"id": 352,
			"name":"Product D",
            "quantity": 1,
			"price": 0.99,
			"discount": null, 
			"modifiers":	
			[
				{
					"id": 53,
					"name":"Modifier A"
				}		
			]				
		}	
	]
}

/*
======================================================================
NOTES - POST RESPONSE - /api/ordering/order/review
$Author: jrmitaly $: Author of last commit
$Date: 2016-02-18 15:28:23 -0500 (Thu, 18 Feb 2016) $: Date of last commit
$Rev: 14288 $: Revision of last commit 
======================================================================
*/

/* 2/18/2016 -jrmitaly 

	OrderModel (a.k.a. Order Object)

	"type": Type of the order - "delivery" or "pickup" are the only two options for now
	
	"location": Free textfield - account holder provides where to deliver an order to (if type is delivery)
	
	"time": Requested time that order will be delivered OR when the order will be prepared to pick up
	
	"phone": Free textfield - Phone # that the account holder who placed the order can be reached at
	
	"comments": Free textfield - General comments about the order that the account holder provides",
	
	"subtotal": Sub-total dollar amount of the order, does NOT include discounts, taxes, additional fees, etc.
	
	"subtotalDiscount": //aggregate of all subtotal discounts on the order
	
	"deliveryFee": //fee for delivering the order (currently set on a product)
	
	"tax": //aggregate of all taxes on the order
	
	"total": Total dollar amount of the order, DOES include discounts, taxes, additional fees, etc.
	
	"products": Array list of Product Models - these are the "details"/"lines" on the order
	
		"id": ID of the product (PAPluID)

		"name": Name of the product

		"description": Description of the product  
		
		"quantity": (used when part of OrderModel) How many of this product are on the order

		"price": Price of the product 
		
		"discount": "Item" (Product Level) discount that was applied to the product

		"modSetDetailID": ID of the FIRST "placeholder" in the "Modifier Menu" - PAModifierSetDetailID off of the QC_PAModifierSetDetail table 
							If null, it can be expected that this product CANNOT be modified 
							
		"modifiers": Array list of "modifier products"
						
			"id": ID of the "modifier product" (PAPluID on QC_PAPlu) - has to be a product that has "Is Modifier" turned on

			"name": Name of the "modifier product"
			
			"price": Price of the "modifier product"	

		
*/
