{
	"status":"success"
	"details": "Successfully modified account status."
}

---
OR
---

{
	"result": "failed",
	"details": "Failed to modify account status."
}

---
OR
---

{
	"result": "failed",
	"details": "Invalid Access."
}

/*
==================================================================================
NOTES - POST REQUEST - /api/account/unfreeze
$Author: jrmitaly $: Author of last commit
$Date: 2015-12-18 08:41:03 -0500 (Fri, 18 Dec 2015) $: Date of last commit
$Rev: 13310 $: Revision of last commit 
==================================================================================
*/

/* 12/15/2015 -jrmitaly

Additional examples for responses:

"result" - Three different answers - "success", "failed", "error"

	"success" - Expected result occured
		"details" - Contains info about what successfully occured
	
	"failed" - Unexpecting result - not necessarily a runtime error but could be
		"details" - Contains info about what failed - will say "Invalid Access" when access sensitive information could not be derived
	
	"error" - Caught an exception - likely a runtime error
		"details" - Will contain the exception

*/

/* 12/16/2015 -jrmitaly

This end point "unfreezes" (changes the account status to "A") for the logged in employee (account)

*/